{
  ".coveragerc": {
    "coverage": "cZSrTvE4r+qUo6ZQBOwVwHXC6dkFP2pXIt7Wr4DGBKAtz6nsM7uJsoWrGza3doBVwZxlkrxPg38y2iGTUDx7Rw=="
  },
  ".gitattributes": {},
  ".gitignore": {
    "git": "fOegAH2YnnLFfnywFI6CYZorYiJo09UrnC2lAoePB5VZO2Ik8I4YrElXXzf9W12ywBq1tdOnptDbx5tJz5d8eQ=="
  },
  ".gitlab-ci.yml": {
    "glabbase.before": "71eK3GiwIpELtMkDyYpJSekqXNUXjwt0j+qWo9fh15j2fz2qtd8vuJj5tj/r3v4p2t09Et0ApU31D63FCgVtMQ==",
    "glabbase.image": "W6vyLsVpEFtBr33486EZJg/b3PlUbxuG3zwUdj8zlD9UUSMcuyKH2hltl82pXSf4Mi7tb5wulVxPOE1nk9E2TA==",
    "glabbase.stages": "b+jsaYyljn9N2c6bQ4tzUE0RvGXL3iTDDdguQH6728SPFkg0nwHuEX39ActAJoCub/LOgCcERW8UWKwQG073Aw==",
    "glabpkg.before": "PlP+mJII5oUbnzWpjFK7oVuVPEYqscvg9fe5HokxU3ZONoYEpaAFK4+EHcItUawIjdlqX7gjO7XdWlGaJJTNmg==",
    "glabpkg.pages": "ueWxFTcP1A71o5/6oaOPG/L+X3XBOwYXVE43XXhGaCC6vB3cdZkt1l349/WQvhQ4BxqV+94evzWGM/tGv9VRZA==",
    "glabpkg.stages": "ud0vGyEwLf57CU298RUcNP/gPK4W+M0luf63b9YhjYNRst/BV6toz2hrjQpl7mF/bqF27krAE5WlNNMDqSSEfw==",
    "glabpkg.test": "o3RxR/NBsVmnttoUQToWNUWg60CmdKOwpTeKOvyMnYKyK3II6YYD70YQDEDSF7innIY9OhnZ4rqw49ZfLFeMgg==",
    "glabpkg.test_all": "dxTJv3Rar+jMKdd7/4rBywrD9ct+kheRNSo6O/NEUZcrFFH/n7j/fQFdXNcKAO4jmKOkbVKh/gXFDRVjni+feg=="
  },
  ".gitlab/issue_templates/bug.md": {},
  ".gitlab/issue_templates/feature.md": {},
  ".gitlab/issue_templates/technical_task.md": {},
  ".pypirc": {
    "pypi.serverdescr": "d6B+Qvp4m8jn/exks3Rn+36F5CYJtuu7hnbIDZauGJVydBD8d2afBO1Pq0KNvhuDgx5x4tslaFISorNRxUqAXA==",
    "pypi.serverlist": "PC9SiM3/1x2vn66stkaGs8IZmA3C9zq9z6sBMLr74e3tdF5l0eBAZsagfMbQjPF+AW6evtXBtpEDMsF3dkjVHQ=="
  },
  "AUTHORS.rst": {
    "doc.authors": "/4DdVJ8b3rG94lfO9Lc7StWASvDQpuf73AL4vpQmxvi4N9ShPsMeP3Shwf6i2d3e4dvIUgDW1Mc0vUxg5LkbUw==",
    "doc.contributors": "J3DSW7KTgdo8oapZqBtZND/7nxY3IXay+rBR7ozFhOJKM047KgTFZPT/yFPdXFDnkAOisXboGHN5A1jNnTs++g=="
  },
  "CONTRIBUTING.rst": {},
  "HISTORY.rst": {},
  "LICENSE": {
    "license": "8T8OUqjlQha1L2WVIjMnlAuMC7QSOZ/Cft/ojnd+BkyKsbdSw6DAbXk1TlI6UvA8A23PQAb98UcVdMqO+ENkiw=="
  },
  "MANIFEST.in": {
    "pysetup": "/WHQoy1jS61DPW/U79TBoWsvMsDtV3JRaY9GS0I94U0NrLAFKMVDyl44nmy2UPV/FQbhSqVj2pajVXxnOwKpXw=="
  },
  "README.rst": {
    "doc": "TE10L8k4lLmRBwIAkMF1NNsncWV1eWxzMDbWh62rCZck196FaFcOXzkSsk6p/yjbMK4AwEVyvYuzAdZZGoFiSg==",
    "glabpkg": "K30/jWLAXG0qc8dTShI4eeTf80PrfnmGlIIt+2JrwP/x2qOUdHNQNkAY7aMV5P1wVM6KsQtR2T9Eft8aHtNPSA=="
  },
  "conda/meta.yaml": {
    "conda.about": "ZiPBdu1jyfqft5jj89WcUafGEmkmiPd3cctkbD6z7nllsTuTTb34aZTQx7LxlAj2XhRbRxL2DQXEeH3tYjlVgA==",
    "conda.package": "rPfIsMF0Dk2RotN8f9vo71OJBbVyTvPVRtEfqHmhPRcNQduh2d85hIAgt2tb4hMXgzaMZh3P5oMLDPJHCCMiWw==",
    "conda.req_build": "21mJUBrupQkwWVvht9oeAcxPY/9UxphvIYC16gdN1wbXVfmH/FkzYMmkQvY02Ev7g3+yqUG9HYPar36xoSLdjQ==",
    "conda.req_run": "qXpDC+SI2mKril31/0cJQC61/8XqoP+aKzI4sekH5WjGK+7piuQqyj94ixWHkTqRTDLlDTufMgchx8+ONd6t0w==",
    "conda.src": "Lzbp176AVU0YantZQxB4LsR2jbxpZ/OlkvY2V4aWAEuzKEarh872uc1eRvsIYf/FsbxvcmUI84AezWlA72nI6A=="
  },
  "conda/requirements.yml": {
    "conda": "OU56PLTNFRlpgGqsuMsSdYTcVThw71TUgWvu0C8e4J4PExTS9vBmN3/ITYUXd98mmBJh54ST3XfFqfrgd5gT3A=="
  },
  "conda/requirements_minimal.yml": {
    "conda": "uNCMv2SI+PVJNWdTaCvSGljKJWu7QaaxtnizvZIRhwbIiYI5OqX8UqaW8d2qgHhGQelWGqkzKE6pqRZB6d7fxw=="
  },
  "doc/Makefile": {
    "sphinx": "EsaaEppe6Kw79WHpUyBigedrIraP6YlQDBg9Fu6jue32Rt6mCQkk2zH7gfOVqjT5bNpnXN90UfLkrzHVJCo6UQ=="
  },
  "doc/_static/nonempty.txt": {},
  "doc/authors.rst": {},
  "doc/badges/badge_doc.svg": {
    "glabpkg": "IM44vWrZFA6ZoJTo4BFQg+p2bnc/CmUsUhL4Tp3CXXcwBw+ujuJrNJbtl3Z1iVdmX7LNG5LljItsrVOKLY+pEw=="
  },
  "doc/badges/badge_pkging_conda.svg": {
    "glabpkg": "9EWkF+RBz2PpI5R9s3JxbDtmL6c+VbOSuKjUuRbXG6c4jMYnyNug1lmsO9PMmi5cu9VgjPTuf6hpokkGYcQqxw=="
  },
  "doc/badges/badge_pkging_pip.svg": {
    "glabpkg": "3QzHUsmZ/YtbbDkCvjnV+kzdzQR9H0zwYfxy2vwbprTv8+kBXYupkARe17EKumSCYI91JTJ45W7d00X8vx/ayw=="
  },
  "doc/badges/listing.rst": {
    "glabpkg": "J875RsZlQpBxEvjsulxe+L2Rl8FWyxYzNMmRjPviJ6OWw4FFIP/LOcs1KEF1SMWCDtyGtQj0HWNOLgIJO7Y8Lw=="
  },
  "doc/biblio/biblio.rst": {},
  "doc/conf.py": {
    "sphinx": "fV+qiPITegLHrasXSxnuWQoDIcKpvlkW9GjflokQPncpFfwzFJLBOTf+A/MqgnSfFxL04v+wDEqgiTE+TJ9Yqg=="
  },
  "doc/contributing.rst": {},
  "doc/history.rst": {},
  "doc/index.rst": {},
  "doc/installation.rst": {},
  "doc/make.bat": {
    "sphinx": "E9sFsnXAm9uPYBn7f0Qb6edct0UKizsXRIJyjZISRCjHbT2HldXK4GIj1yO69R/OVSfnmdAX5lzXQ4wONQNFgA=="
  },
  "doc/management.rst": {},
  "doc/readme.rst": {
    "glabpkg": "QCZmGoZjfk4H9ZidmonCEAm7uJIX0s007wngjMxuBUXdI98rbBgIih34B2bvAat6JybpeAXUtKeo5Y1pSEwfTQ=="
  },
  "doc/usage.rst": {},
  "doc/user/index.rst": {},
  "doc/user/overview.rst": {},
  "example/readme.rst": {},
  "requirements.txt": {
    "reqs": "IAlC1zPVkJIK3Pk67tAwvXjAI4kwbFauoyDHlvsEeERgQrqMmm0peyqEX6JuIU+ERgaWoIf5IBJOsQCg/meroA=="
  },
  "requirements_minimal.txt": {
    "reqs": "X2TMFwjHHdXgv6OldDow0mBkgh7cXtAUqfdu5MuumcjPWrlwr57W96rRC4Cb6q7i3HHaiA6JxiEHY9EfyHGQ1w=="
  },
  "setup.cfg": {
    "sphinx": "mYLeHXWNqXwTk9eWxY4wTrltnDTrAHQvl0l+kosuIfAgrbAuhWMgySq4WR2Y855Q5HDAtGZY7Pnt+BAU6niXIg==",
    "test.nose": "vmiIOMqGhuXJBom/KrWFzvETfJmbSMcLkvZ6XDTcFWl7XRHJgu1tcb4eHn97TgcziEqpfD96M5qO0DV3z3S+CQ==",
    "test.pytest": "R5P5XMaQxSXsNQJ3hXYY45iLvnl8Mbec6XuIaFTum52gym+wTM2TfEbW/N2doHNaCkpdAWg07oblbYi15AwQkA==",
    "wheel": "vUJZkCvbK4LQuEURneKnX/SNIwhJ9/9EaT5T6Uw1K1fauKFFiHnq1DTDES7cgBD0OANelyvwCCZO/rV4Iok+ag=="
  },
  "setup.py": {
    "pysetup.call": "t30iIuCMd/sWxStR2XNYb8bCBgwanhKt8YYn2VKACyAqL5cKFRUWpVRIpAR+uxXUZ9PYYy2csMmECcONnRZE8w==",
    "pysetup.kwds": "ov/GvRZgrRIwRd5UYLrdBLJj5C+ARbqJ/Od2BEaIOQifMuwSzWh9rspvtJiPiJhUE2WbdH1PCqyXYhScCcDr/g=="
  },
  "src/soilfvm/__init__.py": {
    "src": "L2dZgUBRC5qv3o09+1CbMcgYfQtR1ZNSvP8KlP8REQazZiAQAktALjpCC2ijdxvKPv/tN9KsZrzNW+lZMszSfg==",
    "version": "skSCnavrYKIlfN9Mpi+cANbU8gXulaKdlHryvkjkoSSpsag1I66dM+6JHm1aOdmKYU0rZNNgcIamCMbIL7IeMg=="
  },
  "src/soilfvm/version.py": {
    "version": "ru2OHOwItRZYHFrgU5Y54fYS+8TRo6U+81AYdqTp+7fzIDOgBw/BUklAeQLvwUqmwkHxbFuDLBz+c+xzbv3h0w=="
  },
  "test/conftest.py": {
    "test.pytest_addoption": "I/hswVryIEYvZRBcFqkfRBxLP6eZCwZSbQuPclkOkjHw4MApBst5h7H0ejnMMe4bmwHXMXR5DCSxOMj/FcCnjQ==",
    "test.pytest_cmdline_preparse": "il6j++qyUuUMPcbmzysiNgDVe9zBRuxZ4SyUfrLyW6l3/w8vb9maK0BQQvMBtRHkHqbZQhWKHGGV3LpEXisurA==",
    "test.pytest_collection": "a/3h30sLUHJ7xWsOrmfCInOOVXvm660dS+RxHwcDUcae2jHqDLRGhq/v8zgC+FSzN3pXaEaJ1QBJ9MNLOUBuCA==",
    "test.pytest_configure": "SjyTXdrRadJNWhVFYkAvXekjOqNtovwqKNizWD35oZ9XVmsdB/B+lQDzXNPZQ0D5flFpSEURUiGqIvifgEKZ9Q==",
    "test.pytest_import": "2ox6A0szNpUYZR5cJJRSW3OwEWR558BOiUMjC/OVkTPT++CF/OCgGSELCPL+7YHWaJGQKMw2rtCXmOMeSK5ZJA=="
  },
  "test/test_packaging.py": {}
}